{
  "images" : [
    {
      "orientation" : "portrait",
      "idiom" : "iphone",
      "filename" : "Default~iphone.png",
      "extent" : "full-screen",
      "scale" : "1x"
    },
    {
      "orientation" : "portrait",
      "idiom" : "iphone",
      "filename" : "Default@2x~iphone_640x960.png",
      "extent" : "full-screen",
      "minimum-system-version" : "7.0",
      "scale" : "2x"
    },
    {
      "extent" : "full-screen",
      "idiom" : "iphone",
      "subtype" : "retina4",
      "filename" : "Default-568h@2x~iphone_640x1136.png",
      "minimum-system-version" : "7.0",
      "orientation" : "portrait",
      "scale" : "2x"
    },
    {
      "orientation" : "portrait",
      "idiom" : "iphone",
      "minimum-system-version" : "7.0",
      "scale" : "2x"
    },
    {
      "orientation" : "portrait",
      "idiom" : "iphone",
      "minimum-system-version" : "7.0",
      "subtype" : "retina4",
      "scale" : "2x"
    },
    {
      "extent" : "full-screen",
      "idiom" : "iphone",
      "subtype" : "retina4",
      "filename" : "Default-750@2x~iphone6-portrait_750x1334.png",
      "minimum-system-version" : "7.0",
      "orientation" : "portrait",
      "unassigned" : true,
      "scale" : "2x"
    },
    {
      "extent" : "full-screen",
      "idiom" : "iphone",
      "subtype" : "retina4",
      "filename" : "Default-Landscape@2x~ipad_2048x1496.png",
      "minimum-system-version" : "7.0",
      "orientation" : "portrait",
      "unassigned" : true,
      "scale" : "2x"
    },
    {
      "extent" : "full-screen",
      "idiom" : "iphone",
      "subtype" : "retina4",
      "filename" : "Default-Landscape@2x~ipad_2048x1536.png",
      "minimum-system-version" : "7.0",
      "orientation" : "portrait",
      "unassigned" : true,
      "scale" : "2x"
    },
    {
      "extent" : "full-screen",
      "idiom" : "iphone",
      "subtype" : "retina4",
      "filename" : "Default-Portrait@2x~ipad_1536x2008.png",
      "minimum-system-version" : "7.0",
      "orientation" : "portrait",
      "unassigned" : true,
      "scale" : "2x"
    },
    {
      "extent" : "full-screen",
      "idiom" : "iphone",
      "subtype" : "retina4",
      "filename" : "Default-Portrait@2x~ipad_1536x2048.png",
      "minimum-system-version" : "7.0",
      "orientation" : "portrait",
      "unassigned" : true,
      "scale" : "2x"
    },
    {
      "extent" : "full-screen",
      "idiom" : "iphone",
      "subtype" : "retina4",
      "filename" : "Default~ipad.png",
      "minimum-system-version" : "7.0",
      "orientation" : "portrait",
      "unassigned" : true,
      "scale" : "2x"
    },
    {
      "filename" : "Default-750@2x~iphone6-landscape_1334x750.png",
      "unassigned" : true
    },
    {
      "filename" : "Default-1242@3x~iphone6s-landscape_2208x1242.png",
      "unassigned" : true
    },
    {
      "filename" : "Default-1242@3x~iphone6s-portrait_1242x2208.png",
      "unassigned" : true
    },
    {
      "filename" : "Default-Landscape~ipad_1024x748.png",
      "unassigned" : true
    },
    {
      "filename" : "Default-Landscape~ipad_1024x768.png",
      "unassigned" : true
    },
    {
      "filename" : "Default-Portrait~ipad_768x1024.png",
      "unassigned" : true
    },
    {
      "filename" : "Default.png",
      "unassigned" : true
    }
  ],
  "info" : {
    "version" : 1,
    "author" : "xcode"
  }
}