{
  "project_info": {
    "project_number": "1000474064222",
    "firebase_url": "https://golegol-31b59.firebaseio.com",
    "project_id": "golegol-31b59",
    "storage_bucket": "golegol-31b59.appspot.com"
  },
  "client": [
    {
      "client_info": {
        "mobilesdk_app_id": "1:1000474064222:android:8bfdf421e89e6783",
        "android_client_info": {
          "package_name": "com.golegol"
        }
      },
      "oauth_client": [
        {
          "client_id": "1000474064222-njei3988t34rv7a515ar4r3quejntc5j.apps.googleusercontent.com",
          "client_type": 3
        }
      ],
      "api_key": [
        {
          "current_key": "AIzaSyCYlqYPkRTZ8fJ_zI1mgkUFD4zJshaHtTU"
        }
      ],
      "services": {
        "analytics_service": {
          "status": 1
        },
        "appinvite_service": {
          "status": 1,
          "other_platform_oauth_client": []
        },
        "ads_service": {
          "status": 2
        }
      }
    }
  ],
  "configuration_version": "1"
}